{
  "project_info": {
    "project_number": "452942918186",
    "firebase_url": "https://forex-75908.firebaseio.com",
    "project_id": "forex-75908",
    "storage_bucket": "forex-75908.appspot.com"
  },
  "client": [
    {
      "client_info": {
        "mobilesdk_app_id": "1:452942918186:android:6efab8a199ab4771",
        "android_client_info": {
          "package_name": "com.m2p.forex"
        }
      },
      "oauth_client": [
        {
          "client_id": "452942918186-1g483esl3ks5518ucst605hbj8lhagce.apps.googleusercontent.com",
          "client_type": 1,
          "android_info": {
            "package_name": "com.m2p.forex",
            "certificate_hash": "34d9ea892fb1cb8607363554e239316479fcd06a"
          }
        },
        {
          "client_id": "452942918186-figvu7g53nullale4govqhjcv26rgudv.apps.googleusercontent.com",
          "client_type": 3
        }
      ],
      "api_key": [
        {
          "current_key": "AIzaSyAh3yNen0b880MhxFYWu_LXbehzFkfAw_k"
        }
      ],
      "services": {
        "analytics_service": {
          "status": 1
        },
        "appinvite_service": {
          "status": 2,
          "other_platform_oauth_client": [
            {
              "client_id": "452942918186-figvu7g53nullale4govqhjcv26rgudv.apps.googleusercontent.com",
              "client_type": 3
            }
          ]
        },
        "ads_service": {
          "status": 2
        }
      }
    }
  ],
  "configuration_version": "1"
}